{
  "EDITOR_STATE": {
    "allProjectFiles": {
      "2826ff24-155b-4187-afbb-3d07831b589c": {
        "id": "2826ff24-155b-4187-afbb-3d07831b589c",
        "parent": null,
        "name": "hirusqsapi",
        "type": "DIRECTORY",
        "isDirectory": true,
        "children": [
          "e8c7eded-b4a9-4aca-a8df-b39bd0aa4b6b"
        ],
        "isRemovable": false,
        "filePath": "hirusqsapi"
      },
      "e8c7eded-b4a9-4aca-a8df-b39bd0aa4b6b": {
        "id": "e8c7eded-b4a9-4aca-a8df-b39bd0aa4b6b",
        "parent": "2826ff24-155b-4187-afbb-3d07831b589c",
        "name": "lambda.js",
        "type": "JS_LAMBDA",
        "isDirectory": false,
        "children": [],
        "isRemovable": true,
        "filePath": "hirusqsapi/lambda.js",
        "code": "let AWS = require('aws-sdk');\nlet SL_AWS = require('slappforge-sdk-aws');\nconst sqs = new SL_AWS.SQS(AWS);\n\nexports.handler = function (event, context, callback) {\n    sqs.sendMessage({\n        MessageBody: 'this is a test message',\n        QueueUrl: `https://sqs.${process.env.AWS_REGION}.amazonaws.com/${process.env.SIGMA_AWS_ACC_ID}/Hiru1T`,\n        DelaySeconds: '0',\n        MessageAttributes: {}\n    }, function (data) {\n        console.log(data);\n        // your logic (logging etc) to handle successful message delivery, should be here\n    }, function (error) {\n        console.log(error);\n        // your logic (logging etc) to handle failures, should be here\n    });\n\n    callback(null, { \"message\": \"Successfully executed\" });\n}",
        "config": {
          "runtime": "nodejs8.10",
          "handler": "handler",
          "timeout": 60,
          "memory": 128,
          "layers": []
        },
        "triggers": [
          {
            "resourceName": "apigusEast1TestAPIhirusqstestany",
            "config": {}
          }
        ]
      }
    },
    "deletedFiles": [],
    "rootNode": "2826ff24-155b-4187-afbb-3d07831b589c",
    "openFiles": [
      "e8c7eded-b4a9-4aca-a8df-b39bd0aa4b6b"
    ],
    "currentFileId": "e8c7eded-b4a9-4aca-a8df-b39bd0aa4b6b",
    "resources": {
      "apigusEast1TestAPIhirusqstestany": {
        "name": "apigusEast1TestAPIhirusqstestany",
        "type": "API_GATEWAY",
        "config": {
          "selectedRegion": "us-east-1",
          "apiMode": 1,
          "apiName": "TestAPI",
          "apiId": "0itznun7w3",
          "endpointType": "EDGE",
          "rootResourceId": "h2lelj6j7k",
          "existingResources": {
            "/hiru/test": "2b8zt0",
            "/testPathWithSlash": "2rkw74",
            "/hiru": "3nc52b",
            "/hiru/sample": "4226gg",
            "/MyLambda": "98nqbj",
            "/": "h2lelj6j7k",
            "/testWithSlash": "q4m4g1",
            "/testtwospeciallambda": "q4szm3",
            "/testtwospecialkumutest": "wey3lk",
            "/hiru/snscheck": "wok1ku"
          },
          "resourceMode": 0,
          "resourceName": "hiru/sqstest",
          "resourcePath": "/hiru/sqstest",
          "restMethod": "ANY",
          "proxyIntegration": false,
          "enableCORS": false,
          "stageMode": 1,
          "stageName": "Test",
          "stageDeploymentId": "0v1kzw",
          "mode": 1
        }
      },
      "sqsHiru1T": {
        "name": "sqsHiru1T",
        "type": "SQS",
        "config": {
          "mode": 0,
          "existing": false,
          "name": "Hiru1T",
          "url": "https://sqs.us-east-1.amazonaws.com/318300609668/Hiru1T",
          "selectedRegion": "us-east-1",
          "deliveryDelay": 0,
          "deliveryDelayUnit": "seconds",
          "useRedrivePolicy": false,
          "useSSE": false,
          "kmsCustomerMasterKey": "default",
          "accountId": "318300609668",
          "dataKeyReusePeriod": 5,
          "queueType": "standardQueue",
          "defaultVisibilityTimeout": "120",
          "defaultVisibilityTimeoutUnit": "seconds",
          "messageRetentionPeriod": 4,
          "messageRetentionPeriodUnit": "days",
          "maximumMessageSize": 256,
          "receiveMessageWaitTime": 0,
          "deadLetterQueueName": "",
          "contentBasedDeduplication": false
        }
      }
    },
    "customTemplate": {
      "dialect": null,
      "definitions": {}
    },
    "envVariables": [
      {
        "lambdaId": "all",
        "varKey": "SIGMA_AWS_ACC_ID",
        "varValue": null,
        "shouldPersist": false,
        "displayOnly": false,
        "editable": false
      }
    ],
    "packageJSON": {
      "dependencies": {
        "aws-sdk": {
          "name": "aws-sdk",
          "language": "javascript",
          "version": "2.176.0",
          "dev": true,
          "notRemovable": false
        },
        "slappforge-sdk-aws": {
          "name": "slappforge-sdk-aws",
          "language": "javascript",
          "version": "0.0.5",
          "dev": false,
          "notRemovable": false
        }
      }
    }
  },
  "PROJECT_META": {
    "projectName": "hirusqsapi",
    "projectDescription": "",
    "projectVersion": "1.0.0",
    "projectRegion": "us-east-1",
    "platform": "AWS",
    "platformRegions": {},
    "lastSave": 1562313259056
  },
  "VCS_STATE": {
    "provider": "BitBucket",
    "repo": {
      "name": "hirusqsapi",
      "url": "https://bitbucket.org/hirudineeliyanage/hirusqsapi"
    }
  }
}